"FILE";"KEY_COUNT";"SOBEK_COUNT";"SOBEK_ACERTO";
"12398770.txt";"6";"6";"0";
"12223122.txt";"9";"9";"0";
"12202561.txt";"15";"15";"2";
"12915563.txt";"14";"14";"0";
"12915542.txt";"12";"12";"0";
"12221131.txt";"28";"28";"1";
"12223121.txt";"14";"14";"0";
"12202751.txt";"17";"17";"1";
"12183242.txt";"12";"12";"0";
"12204972.txt";"7";"7";"0";
"12915530.txt";"20";"20";"3";
"12223128.txt";"16";"16";"2";
"12183268.txt";"8";"8";"0";
"11835696.txt";"11";"11";"0";
"12202775.txt";"8";"8";"0";
"12202554.txt";"8";"8";"1";
"12359841.txt";"9";"9";"1";
"12226500.txt";"14";"14";"0";
"12183247.txt";"12";"12";"2";
"12223123.txt";"10";"10";"1";
"12351359.txt";"15";"15";"0";
"12202578.txt";"12";"12";"2";
"12202583.txt";"21";"21";"2";
"12915553.txt";"19";"19";"0";
"12183266.txt";"10";"10";"0";
"12221121.txt";"14";"14";"1";
"12204951.txt";"12";"12";"1";
"12915571.txt";"17";"17";"0";
"12226502.txt";"15";"15";"0";
"12183260.txt";"9";"9";"0";
"11997340.txt";"18";"18";"1";
"11997343.txt";"10";"10";"1";
"12202595.txt";"16";"16";"0";
"12183248.txt";"12";"12";"1";
"12915572.txt";"21";"21";"0";
"12221124.txt";"23";"23";"2";
"12398772.txt";"7";"7";"1";
"12202756.txt";"19";"19";"0";
"12069692.txt";"16";"16";"0";
"12183244.txt";"13";"13";"1";
"12915551.txt";"20";"20";"0";
"12183245.txt";"16";"16";"1";
"12226515.txt";"26";"26";"0";
"12202573.txt";"12";"12";"0";
"12364374.txt";"10";"10";"1";
"12202563.txt";"13";"13";"0";
"12915586.txt";"12";"12";"0";
"12915575.txt";"19";"19";"0";
"12202550.txt";"10";"10";"0";
"12915527.txt";"12";"12";"1";
"12915556.txt";"12";"12";"0";
"12226505.txt";"25";"25";"1";
"12202582.txt";"14";"14";"2";
"12202609.txt";"14";"14";"0";
"12398769.txt";"8";"8";"0";
"12915578.txt";"15";"15";"2";
"12915536.txt";"16";"16";"1";
"12183233.txt";"15";"15";"1";
"12183287.txt";"10";"10";"0";
"12202769.txt";"15";"15";"0";
"12204967.txt";"20";"20";"0";
"12183236.txt";"16";"16";"2";
"12915573.txt";"17";"17";"0";
"12226487.txt";"11";"11";"0";
"12915583.txt";"18";"18";"0";
"12183230.txt";"19";"19";"0";
"12398784.txt";"14";"14";"1";
"12915577.txt";"19";"19";"1";
"12398773.txt";"9";"9";"2";
"10984464.txt";"5";"5";"2";
"12221118.txt";"28";"28";"2";
"12204945.txt";"9";"9";"3";
"12183265.txt";"8";"8";"0";
"12915544.txt";"18";"18";"1";
"12226514.txt";"18";"18";"2";
"12202570.txt";"12";"12";"0";
"12183240.txt";"12";"12";"0";
"12398782.txt";"7";"7";"0";
"11943069.txt";"11";"11";"0";
"12202768.txt";"13";"13";"0";
"12202579.txt";"12";"12";"0";
"11997337.txt";"21";"21";"1";
"12202552.txt";"17";"17";"4";
"12186978.txt";"13";"13";"1";
"14630605.txt";"14";"14";"0";
"11876827.txt";"17";"17";"0";
"12351358.txt";"8";"8";"0";
"12223118.txt";"11";"11";"1";
"12204954.txt";"20";"20";"1";
"12202601.txt";"14";"14";"0";
"12183254.txt";"14";"14";"0";
"12204949.txt";"19";"19";"1";
"12079500.txt";"18";"18";"1";
"12202770.txt";"15";"15";"2";
"12398783.txt";"10";"10";"4";
"12204950.txt";"15";"15";"1";
"12204959.txt";"10";"10";"0";
"12915529.txt";"15";"15";"0";
"12915561.txt";"19";"19";"1";
"12183226.txt";"15";"15";"1";
"12221110.txt";"22";"22";"0";
"12183281.txt";"10";"10";"0";
"12915555.txt";"14";"14";"0";
"12226520.txt";"13";"13";"3";
"12202771.txt";"8";"8";"0";
"12121577.txt";"15";"15";"0";
"12204948.txt";"8";"8";"0";
"12183241.txt";"20";"20";"4";
"12226510.txt";"15";"15";"1";
"12204969.txt";"15";"15";"0";
"12204974.txt";"10";"10";"2";
"12183272.txt";"14";"14";"2";
"12204970.txt";"13";"13";"1";
"12351363.txt";"7";"7";"0";
"12226506.txt";"16";"16";"1";
"12183273.txt";"15";"15";"2";
"12221120.txt";"17";"17";"0";
"12183270.txt";"18";"18";"3";
"12915581.txt";"13";"13";"0";
"12202748.txt";"16";"16";"0";
"12204965.txt";"17";"17";"1";
"12202776.txt";"15";"15";"1";
"12202542.txt";"14";"14";"0";
"12398788.txt";"8";"8";"1";
"12183225.txt";"28";"28";"2";
"12084180.txt";"21";"21";"1";
"12202553.txt";"11";"11";"0";
"12915560.txt";"16";"16";"0";
"12226528.txt";"15";"15";"0";
"12364369.txt";"11";"11";"1";
"12183232.txt";"12";"12";"0";
"12226490.txt";"15";"15";"0";
"12915562.txt";"21";"21";"0";
"12202610.txt";"16";"16";"3";
"12079499.txt";"21";"21";"0";
"12221125.txt";"16";"16";"1";
"12361483.txt";"19";"19";"0";
"12202778.txt";"19";"19";"1";
"12226513.txt";"19";"19";"1";
"12226508.txt";"17";"17";"1";
"12419768.txt";"25";"25";"4";
"12202780.txt";"13";"13";"1";
"12915565.txt";"14";"14";"1";
"12202543.txt";"14";"14";"1";
"12202577.txt";"15";"15";"1";
"12204953.txt";"12";"12";"1";
"12153701.txt";"20";"20";"0";
"12915538.txt";"20";"20";"0";
"12915532.txt";"19";"19";"1";
"12221119.txt";"27";"27";"3";
"12202548.txt";"16";"16";"0";
"12202590.txt";"13";"13";"0";
"12226495.txt";"14";"14";"0";
"12221123.txt";"27";"27";"0";
"12915539.txt";"9";"9";"0";
"12195021.txt";"7";"7";"1";
"12223126.txt";"20";"20";"1";
"12204961.txt";"11";"11";"0";
"12221113.txt";"16";"16";"0";
"12398779.txt";"9";"9";"0";
"11818032.txt";"19";"19";"3";
"12057022.txt";"11";"11";"1";
"12183246.txt";"14";"14";"4";
"11997347.txt";"9";"9";"0";
"12359842.txt";"11";"11";"2";
"12183267.txt";"16";"16";"1";
"12915585.txt";"11";"11";"0";
"12202557.txt";"11";"11";"0";
"12202607.txt";"8";"8";"0";
"12202569.txt";"13";"13";"2";
"12915549.txt";"16";"16";"1";
"10984470.txt";"10";"10";"0";
"12359835.txt";"11";"11";"0";
"12915546.txt";"13";"13";"0";
"12097150.txt";"17";"17";"0";
"12183262.txt";"17";"17";"3";
"12183261.txt";"13";"13";"1";
"12183249.txt";"17";"17";"0";
"12221130.txt";"19";"19";"0";
"12183278.txt";"8";"8";"2";
"12202762.txt";"12";"12";"3";
"12204964.txt";"12";"12";"0";
"12202611.txt";"14";"14";"0";
"12052259.txt";"15";"15";"1";
"12183251.txt";"13";"13";"0";
"12202750.txt";"14";"14";"0";
"12202555.txt";"21";"21";"1";
"12183222.txt";"12";"12";"1";
"12359834.txt";"19";"19";"2";
"12213183.txt";"14";"14";"0";
"12364368.txt";"9";"9";"0";
"12193650.txt";"7";"7";"1";
"12225617.txt";"22";"22";"0";
"12202767.txt";"13";"13";"1";
"12226485.txt";"16";"16";"1";
"12915558.txt";"16";"16";"0";
"12226492.txt";"12";"12";"1";
"12202603.txt";"12";"12";"0";
"12202564.txt";"8";"8";"0";
"11997339.txt";"20";"20";"0";
"11996675.txt";"15";"15";"0";
"12202766.txt";"10";"10";"1";
"11997341.txt";"27";"27";"1";
"12202759.txt";"14";"14";"1";
"12183253.txt";"15";"15";"2";
"12202598.txt";"12";"12";"1";
"12453307.txt";"17";"17";"0";
"12398786.txt";"12";"12";"1";
"12398785.txt";"13";"13";"0";
"12183269.txt";"10";"10";"0";
"12351364.txt";"5";"5";"0";
"12370087.txt";"24";"24";"1";
"12202581.txt";"16";"16";"0";
"12226484.txt";"16";"16";"1";
"12202592.txt";"15";"15";"0";
"12202615.txt";"7";"7";"0";
"12202544.txt";"17";"17";"0";
"11997345.txt";"10";"10";"0";
"10984468.txt";"5";"5";"0";
"12183286.txt";"11";"11";"1";
"12183275.txt";"12";"12";"1";
"12184817.txt";"22";"22";"1";
"12359836.txt";"10";"10";"0";
"12364372.txt";"2";"2";"0";
"12221135.txt";"14";"14";"0";
"12221136.txt";"24";"24";"1";
"12915579.txt";"14";"14";"0";
"12204958.txt";"17";"17";"2";
"12915548.txt";"11";"11";"0";
"12202558.txt";"16";"16";"0";
"12167173.txt";"10";"10";"0";
"12359837.txt";"9";"9";"0";
"12202777.txt";"10";"10";"0";
"12915540.txt";"13";"13";"0";
"10984469.txt";"10";"10";"0";
"12350235.txt";"13";"13";"1";
"12202752.txt";"13";"13";"0";
"12202589.txt";"16";"16";"1";
"12915569.txt";"14";"14";"0";
"12202541.txt";"20";"20";"1";
"12183284.txt";"9";"9";"0";
"12202584.txt";"12";"12";"1";
"12183282.txt";"13";"13";"0";
"11997338.txt";"22";"22";"1";
"12192093.txt";"9";"9";"0";
"12226489.txt";"28";"28";"2";
"12398771.txt";"5";"5";"0";
"12226503.txt";"22";"22";"0";
"12915543.txt";"19";"19";"3";
"12204957.txt";"17";"17";"1";
"12204952.txt";"13";"13";"1";
"12915545.txt";"16";"16";"0";
"12364375.txt";"17";"17";"1";
"12183280.txt";"13";"13";"1";
"12202779.txt";"11";"11";"0";
"12202568.txt";"18";"18";"2";
"12226507.txt";"14";"14";"2";
"12202755.txt";"17";"17";"2";
"12202560.txt";"14";"14";"0";
"10984463.txt";"5";"5";"0";
"10933267.txt";"17";"17";"4";
"12777364.txt";"15";"15";"0";
"12183279.txt";"16";"16";"1";
"12202602.txt";"8";"8";"0";
"12202772.txt";"12";"12";"1";
"12202617.txt";"11";"11";"0";
"12207826.txt";"17";"17";"2";
"12221111.txt";"19";"19";"1";
"12185245.txt";"6";"6";"0";
"12226522.txt";"9";"9";"0";
"12183224.txt";"10";"10";"0";
"12226517.txt";"19";"19";"0";
"12183271.txt";"9";"9";"0";
"12202604.txt";"15";"15";"2";
"12226497.txt";"22";"22";"1";
"12915533.txt";"15";"15";"0";
"10984465.txt";"6";"6";"1";
"12915541.txt";"15";"15";"1";
"12221117.txt";"26";"26";"0";
"12202574.txt";"10";"10";"1";
"12202597.txt";"12";"12";"2";
"12183238.txt";"19";"19";"1";
"12473161.txt";"19";"19";"0";
"12915537.txt";"19";"19";"2";
"12202594.txt";"16";"16";"0";
"12351360.txt";"15";"15";"3";
"12204963.txt";"14";"14";"0";
"12202591.txt";"12";"12";"1";
"12398781.txt";"11";"11";"2";
"12226504.txt";"17";"17";"2";
"12204966.txt";"17";"17";"0";
"12915559.txt";"19";"19";"0";
"12086585.txt";"16";"16";"1";
"12509223.txt";"23";"23";"0";
"12183239.txt";"15";"15";"0";
"12359840.txt";"13";"13";"1";
"12915568.txt";"14";"14";"1";
"12202551.txt";"18";"18";"2";
"12202585.txt";"18";"18";"0";
"12202773.txt";"12";"12";"1";
"12204973.txt";"11";"11";"0";
"12014993.txt";"12";"12";"2";
"12364370.txt";"12";"12";"0";
"12221114.txt";"22";"22";"1";
"12052260.txt";"14";"14";"0";
"12398777.txt";"10";"10";"0";
"12202605.txt";"15";"15";"4";
"12915576.txt";"19";"19";"0";
"12202618.txt";"8";"8";"1";
"12186975.txt";"11";"11";"0";
"12202567.txt";"13";"13";"1";
"12915531.txt";"19";"19";"0";
"12183234.txt";"12";"12";"0";
"12398778.txt";"8";"8";"0";
"12126482.txt";"13";"13";"0";
"11882257.txt";"13";"13";"0";
"12183259.txt";"13";"13";"1";
"12019031.txt";"17";"17";"0";
"12052258.txt";"17";"17";"1";
"12364377.txt";"5";"5";"1";
"12915534.txt";"17";"17";"0";
"12079498.txt";"8";"8";"1";
"11825341.txt";"14";"14";"3";
"12226496.txt";"13";"13";"2";
"12226521.txt";"21";"21";"1";
"12364373.txt";"8";"8";"1";
"12226494.txt";"16";"16";"1";
"12221115.txt";"26";"26";"0";
"12226529.txt";"18";"18";"1";
"12202545.txt";"16";"16";"2";
"12202608.txt";"11";"11";"1";
"12183235.txt";"19";"19";"1";
"11825347.txt";"18";"18";"1";
"11997346.txt";"18";"18";"0";
"12202612.txt";"11";"11";"2";
"12915547.txt";"18";"18";"1";
"12183237.txt";"12";"12";"0";
"12226509.txt";"9";"9";"0";
"12915554.txt";"13";"13";"0";
"11972899.txt";"11";"11";"1";
"12226527.txt";"14";"14";"0";
"12202619.txt";"7";"7";"0";
"12202540.txt";"6";"6";"0";
"12183263.txt";"15";"15";"0";
"12183228.txt";"13";"13";"1";
"12183276.txt";"16";"16";"1";
"12202587.txt";"11";"11";"4";
"11997349.txt";"8";"8";"0";
"12202614.txt";"10";"10";"0";
"12202546.txt";"14";"14";"0";
"12183231.txt";"13";"13";"0";
"12204946.txt";"16";"16";"0";
"12186979.txt";"10";"10";"0";
"12183277.txt";"9";"9";"0";
"12226518.txt";"14";"14";"1";
"12221127.txt";"25";"25";"1";
"12202763.txt";"10";"10";"0";
"12202566.txt";"13";"13";"1";
"12202765.txt";"29";"29";"0";
"12202616.txt";"10";"10";"0";
"12915584.txt";"14";"14";"0";
"12226511.txt";"12";"12";"0";
"12398774.txt";"8";"8";"3";
"12110157.txt";"17";"17";"2";
"12183257.txt";"10";"10";"0";
"12202572.txt";"16";"16";"2";
"12202754.txt";"16";"16";"2";
"12202757.txt";"13";"13";"2";
"12915557.txt";"16";"16";"0";
"12202758.txt";"9";"9";"0";
"12204947.txt";"10";"10";"1";
"12183250.txt";"14";"14";"1";
"15353412.txt";"24";"24";"2";
"12359833.txt";"11";"11";"0";
"12364378.txt";"11";"11";"2";
"12202774.txt";"9";"9";"1";
"12221134.txt";"15";"15";"2";
"12226488.txt";"11";"11";"0";
"12398776.txt";"15";"15";"1";
"12202559.txt";"13";"13";"0";
"12202588.txt";"13";"13";"1";
"12226516.txt";"9";"9";"1";
"12204944.txt";"15";"15";"0";
"12221138.txt";"26";"26";"2";
"11914162.txt";"20";"20";"1";
"11914163.txt";"14";"14";"0";
"12204968.txt";"20";"20";"1";
"12022922.txt";"13";"13";"0";
"12202599.txt";"19";"19";"1";
"12226491.txt";"17";"17";"1";
"12221133.txt";"21";"21";"0";
"12398787.txt";"12";"12";"0";
"12915552.txt";"20";"20";"1";
"12915582.txt";"24";"24";"3";
"11914161.txt";"15";"15";"0";
"12193647.txt";"4";"4";"0";
"12226523.txt";"15";"15";"2";
"12226486.txt";"17";"17";"0";
"12028592.txt";"17";"17";"1";
"12204942.txt";"5";"5";"1";
"12202606.txt";"12";"12";"4";
"12006105.txt";"16";"16";"0";
"12226501.txt";"17";"17";"2";
"12183227.txt";"14";"14";"1";
"12202760.txt";"11";"11";"2";
"12204975.txt";"8";"8";"1";
"10984462.txt";"6";"6";"0";
"12223127.txt";"12";"12";"1";
"12185243.txt";"10";"10";"0";
"12226498.txt";"19";"19";"1";
"12226512.txt";"11";"11";"1";
"12202549.txt";"12";"12";"1";
"12149129.txt";"10";"10";"0";
"12202753.txt";"11";"11";"0";
"12185244.txt";"3";"3";"0";
"12223120.txt";"12";"12";"1";
"12359839.txt";"15";"15";"2";
"12204943.txt";"4";"4";"0";
"12202761.txt";"18";"18";"2";
"12226525.txt";"22";"22";"1";
"12183256.txt";"10";"10";"0";
"12204955.txt";"13";"13";"0";
"11997344.txt";"17";"17";"2";
"11914164.txt";"12";"12";"0";
"12226526.txt";"20";"20";"1";
"11884248.txt";"14";"14";"3";
"12202547.txt";"8";"8";"0";
"12183264.txt";"14";"14";"1";
"12351361.txt";"10";"10";"1";
"12202593.txt";"13";"13";"1";
"10984467.txt";"8";"8";"0";
"12202565.txt";"19";"19";"0";
"12221129.txt";"23";"23";"4";
"12359838.txt";"12";"12";"0";
"12183274.txt";"13";"13";"1";
"12915574.txt";"15";"15";"1";
"12183255.txt";"17";"17";"2";
"12915566.txt";"21";"21";"1";
"12221112.txt";"19";"19";"2";
"12915535.txt";"16";"16";"0";
"12351362.txt";"8";"8";"0";
"12154231.txt";"11";"11";"0";
"12364371.txt";"14";"14";"0";
"12186657.txt";"22";"22";"0";
"16269586.txt";"15";"15";"0";
"11825346.txt";"15";"15";"1";
"12183229.txt";"11";"11";"1";
"12183243.txt";"11";"11";"2";
"12226519.txt";"21";"21";"0";
"12223119.txt";"11";"11";"0";
"12915550.txt";"23";"23";"1";
"12221116.txt";"25";"25";"4";
"12915570.txt";"20";"20";"1";
"12221126.txt";"24";"24";"1";
"12915528.txt";"13";"13";"1";
"12204962.txt";"15";"15";"0";
"12202571.txt";"11";"11";"0";
"11997336.txt";"19";"19";"0";
"10984466.txt";"15";"15";"0";
"11415952.txt";"15";"15";"1";
"12915564.txt";"17";"17";"0";
"12361478.txt";"21";"21";"0";
"12226499.txt";"17";"17";"1";
"12202613.txt";"8";"8";"0";
"12183223.txt";"16";"16";"0";
"12204960.txt";"18";"18";"1";
"12221132.txt";"26";"26";"1";
"12183258.txt";"11";"11";"2";
"12202764.txt";"16";"16";"1";
"11997350.txt";"12";"12";"0";
"12223124.txt";"8";"8";"1";
"12202749.txt";"13";"13";"1";
"12398775.txt";"5";"5";"2";
"12202575.txt";"20";"20";"1";
"12364376.txt";"12";"12";"0";
"12202580.txt";"17";"17";"1";
"12202586.txt";"17";"17";"2";
"11997342.txt";"11";"11";"2";
"11997348.txt";"10";"10";"0";
"12226493.txt";"20";"20";"1";
"12202596.txt";"13";"13";"0";
"12204956.txt";"16";"16";"1";
"12226524.txt";"15";"15";"2";
"12221128.txt";"27";"27";"0";
"12398790.txt";"18";"18";"2";
"12202556.txt";"16";"16";"2";
"12915580.txt";"14";"14";"0";
"12183283.txt";"13";"13";"0";
"12183285.txt";"7";"7";"0";
"12204971.txt";"11";"11";"0";
"10984461.txt";"7";"7";"0";
"12202562.txt";"11";"11";"0";
"12221122.txt";"22";"22";"0";
"12202600.txt";"19";"19";"2";
"12221137.txt";"14";"14";"1";
"12202576.txt";"14";"14";"1";
"12398780.txt";"8";"8";"1";
"12915567.txt";"15";"15";"1";
"12223125.txt";"7";"7";"0";
"12221139.txt";"20";"20";"3";
