"FILE";"KEY_COUNT";"SOBEK_COUNT";"SOBEK_ACERTO";"YAKE_COUNT";"YAKE_ACERTO"
"gwenda.txt";"13";"12";"2";"13";"2";
"dan.txt";"5";"6";"1";"5";"1";
"shi.txt";"4";"5";"0";"4";"1";
"biju.txt";"5";"4";"2";"5";"0";
"sun.txt";"3";"6";"0";"3";"0";
"stolte.txt";"7";"9";"1";"7";"1";
"ridley.txt";"9";"9";"0";"9";"1";
"armstrong.txt";"3";"5";"0";"3";"0";
"anthony.txt";"2";"1";"0";"0";"0";
"liu.txt";"5";"5";"0";"5";"0"; 
"levine.txt";"7";"7";"1";"7";"0";
"markk.txt";"6";"7";"1";"6";"1";
"emma.txt";"12";"13";"2";"12";"2";
"rennie.txt";"7";"9";"0";"7";"0";
"shneider.txt";"7";"7";"2";"7";"1";
"hoult.txt";"1";"3";"0";"1";"0";
"errol.txt";"5";"6";"0";"5";"0";
"anneh.txt";"7";"7";"0";"7";"0";
"fritzc.txt";"7";"8";"1";"7";"1";
"padmini.txt";"11";"13";"2";"11";"2";
"kartick.txt";"7";"8";"0";"7";"0";
"xiao.txt";"11";"12";"0";"11";"0";
"davison.txt";"5";"7";"0";"5";"0";
"kirk.txt";"7";"8";"1";"7";"0";
"blaire.txt";"8";"7";"0";"8";"0";
"joseph.txt";"5";"6";"0";"5";"0";
"qin.txt";"8";"9";"0";"8";"0";
"barnett.txt";"1";"3";"0";"1";"0";
"tery.txt";"6";"8";"2";"6";"1";
"wright.txt";"1";"3";"0";"1";"0";
"foster.txt";"8";"10";"1";"8";"1";
"debra.txt";"9";"12";"2";"9";"1";
"rupara.txt";"8";"9";"1";"8";"2";
"beere.txt";"9";"10";"2";"9";"1";
"cowley.txt";"4";"9";"2";"4";"1";
"roho.txt";"13";"14";"1";"13";"1";
"carolina.txt";"10";"11";"0";"10";"0";
"paynter.txt";"2";"4";"0";"2";"0";
"jeanp.txt";"6";"6";"0";"6";"1";
"jonathan.txt";"5";"7";"0";"5";"0";
"ross.txt";"10";"12";"0";"10";"0";
"reese.txt";"6";"9";"1";"6";"0";
"fow.txt";"2";"4";"0";"2";"1";
"herbert.txt";"1";"3";"0";"1";"0";
"harris.txt";"4";"8";"0";"4";"0";
"redfern.txt";"6";"6";"1";"6";"0";
"afiya.txt";"11";"9";"0";"11";"0";
"buckley.txt";"9";"11";"2";"9";"0";
"lisag.txt";"8";"10";"0";"8";"1";
"anan.txt";"4";"5";"0";"4";"0";
"robert.txt";"1";"3";"0";"1";"0";
"derek.txt";"12";"10";"1";"12";"1";
"mcgregor.txt";"3";"5";"0";"3";"0";
"newbold.txt";"5";"8";"1";"5";"0";
"margaret.txt";"1";"3";"0";"1";"0";
"yux.txt";"1";"4";"0";"1";"0";
"allen.txt";"8";"8";"1";"8";"2";
"anna.txt";"5";"8";"1";"5";"1";
"kieren.txt";"8";"11";"0";"8";"0";
"collins.txt";"10";"10";"2";"10";"1";
"neil.txt";"7";"8";"2";"7";"1";
"tamar.txt";"4";"6";"0";"4";"0";
"burke.txt";"9";"11";"2";"9";"1";
"ismail.txt";"8";"10";"0";"8";"0";
"bruce.txt";"7";"10";"0";"7";"0";
"scottg.txt";"5";"5";"0";"5";"0";
"joanna.txt";"7";"9";"0";"7";"1";
"vivi.txt";"3";"5";"0";"3";"0";
"mayall.txt";"2";"4";"0";"2";"0";
"lunn.txt";"9";"9";"0";"9";"2";
"sutherland.txt";"5";"7";"0";"5";"0";
"davies.txt";"6";"7";"1";"6";"0";
"charlotte.txt";"20";"23";"3";"20";"1";
"brian.txt";"8";"10";"1";"8";"1";
"gordon.txt";"6";"7";"0";"6";"0";
"hoan.txt";"7";"7";"0";"7";"0";
"bethany.txt";"5";"7";"0";"5";"0";
"jaygrace.txt";"9";"7";"0";"9";"0";
"adeline.txt";"5";"7";"0";"5";"0";
"bridget.txt";"1";"4";"0";"1";"0";
"yeates.txt";"4";"6";"0";"4";"0";
"morehu.txt";"7";"10";"0";"7";"0";
"bannon.txt";"4";"6";"0";"4";"0";
"cleland.txt";"13";"12";"1";"13";"1";
"giles.txt";"7";"9";"0";"7";"0";
"zavier.txt";"5";"6";"0";"5";"0";
"marie.txt";"8";"8";"2";"8";"2";
"benton.txt";"4";"6";"1";"4";"1";
"brown.txt";"4";"4";"0";"4";"0";
"sophie.txt";"8";"12";"0";"8";"0";
"wiata.txt";"13";"14";"1";"13";"1";
"casci.txt";"12";"11";"2";"12";"0";
"pocock.txt";"8";"7";"0";"8";"0";
"goodhue.txt";"9";"9";"3";"9";"2";
"watkins.txt";"7";"6";"2";"7";"3";
"dyar.txt";"6";"7";"0";"6";"0";
"xu.txt";"4";"6";"0";"4";"0";
"hodder.txt";"7";"8";"0";"7";"0";
"nicola.txt";"6";"4";"2";"6";"1";
"cbarnett.txt";"1";"3";"0";"1";"0";
