"FILE";"KEY_COUNT";"SOBEK_COUNT";"SOBEK_ACERTO";"YAKE_COUNT";"YAKE_ACERTO"
"174.txt";"22";"23";"4";"22";"4";
"146.txt";"7";"9";"0";"7";"1";
"109.txt";"12";"12";"1";"12";"1";
"110.txt";"10";"14";"2";"10";"1";
"193.txt";"18";"16";"0";"18";"1";
"175.txt";"6";"7";"0";"6";"0";
"176.txt";"14";"12";"1";"14";"3";
"90.txt";"10";"10";"1";"10";"5";
"22.txt";"13";"10";"0";"13";"3";
"10.txt";"33";"32";"2";"33";"8"; 
"63.txt";"18";"20";"3";"18";"1";
"2.txt";"23";"25";"3";"23";"4";
"102.txt";"2";"3";"0";"2";"0";
"20.txt";"7";"8";"1";"7";"2";
"89.txt";"11";"12";"0";"11";"2";
"11.txt";"9";"11";"1";"9";"1";
"178.txt";"4";"5";"0";"4";"0";
"47.txt";"14";"14";"0";"14";"0";
"125.txt";"6";"7";"0";"6";"1";
"194.txt";"17";"17";"2";"17";"3";
"134.txt";"16";"17";"1";"16";"1";
"17.txt";"14";"15";"4";"14";"3";
"53.txt";"14";"14";"1";"14";"1";
"114.txt";"15";"16";"1";"15";"3";
"172.txt";"4";"5";"0";"4";"1";
"77.txt";"9";"9";"1";"9";"3";
"69.txt";"15";"14";"3";"15";"5";
"65.txt";"17";"15";"1";"17";"1";
"214.txt";"3";"4";"0";"3";"0";
"210.txt";"3";"5";"0";"3";"1";
"68.txt";"17";"16";"0";"17";"0";
"15.txt";"11";"11";"0";"11";"2";
"80.txt";"15";"19";"2";"15";"3";
"96.txt";"17";"19";"2";"17";"3";
"84.txt";"13";"11";"4";"13";"4";
"121.txt";"14";"14";"5";"14";"2";
"58.txt";"8";"7";"3";"8";"4";
"23.txt";"13";"14";"2";"13";"3";
"82.txt";"12";"12";"7";"12";"5";
"171.txt";"3";"5";"1";"3";"2";
"183.txt";"5";"6";"0";"5";"0";
"64.txt";"16";"14";"0";"16";"4";
"209.txt";"4";"4";"0";"4";"1";
"200.txt";"11";"10";"1";"11";"4";
"101.txt";"7";"9";"1";"7";"0";
"60.txt";"13";"15";"1";"13";"1";
"119.txt";"15";"15";"0";"15";"2";
"205.txt";"3";"5";"1";"3";"1";
"59.txt";"13";"14";"4";"13";"3";
"173.txt";"14";"12";"0";"14";"2";
"73.txt";"14";"15";"1";"14";"0";
"157.txt";"6";"7";"1";"6";"1";
"177.txt";"3";"4";"0";"3";"1";
"87.txt";"31";"29";"2";"31";"3";
"198.txt";"21";"19";"3";"21";"5";
"129.txt";"10";"12";"3";"10";"4";
"95.txt";"12";"14";"1";"12";"1";
"130.txt";"6";"6";"0";"6";"1";
"43.txt";"14";"15";"5";"14";"5";
"154.txt";"3";"5";"1";"3";"0";
"55.txt";"10";"10";"0";"10";"1";
"206.txt";"4";"5";"0";"4";"1";
"133.txt";"9";"10";"1";"9";"0";
"9.txt";"33";"31";"7";"33";"9";
"105.txt";"11";"14";"2";"11";"1";
"48.txt";"23";"24";"1";"23";"1";
"113.txt";"15";"15";"2";"15";"3";
"153.txt";"4";"6";"0";"4";"1";
"128.txt";"15";"12";"2";"15";"5";
"151.txt";"3";"3";"0";"3";"0";
"33.txt";"14";"15";"1";"14";"2";
"6.txt";"43";"38";"3";"43";"7";
"152.txt";"5";"5";"1";"5";"0";
"42.txt";"13";"14";"2";"13";"4";
"111.txt";"6";"8";"0";"6";"0";
"108.txt";"12";"14";"0";"12";"2";
"26.txt";"7";"10";"1";"7";"2";
"91.txt";"10";"13";"0";"10";"0";
"19.txt";"12";"10";"2";"12";"1";
"199.txt";"22";"22";"1";"22";"12";
"126.txt";"16";"19";"3";"16";"3";
"165.txt";"3";"5";"0";"3";"0";
"197.txt";"20";"24";"3";"20";"5";
"181.txt";"13";"16";"0";"13";"0";
"100.txt";"26";"36";"0";"26";"3";
"201.txt";"16";"15";"0";"16";"3";
"159.txt";"12";"12";"0";"12";"1";
"49.txt";"2";"4";"0";"2";"1";
"163.txt";"5";"6";"1";"5";"1";
"45.txt";"13";"13";"5";"13";"5";
"169.txt";"5";"7";"0";"5";"0";
"5.txt";"35";"26";"8";"35";"11";
"12.txt";"11";"11";"2";"11";"2";
"115.txt";"19";"19";"4";"19";"4";
"57.txt";"11";"12";"6";"11";"4";
"215.txt";"6";"8";"0";"6";"1";
"131.txt";"11";"11";"0";"11";"2";
"41.txt";"11";"8";"0";"11";"3";
"107.txt";"12";"13";"3";"12";"3";
"145.txt";"9";"9";"0";"9";"2";
"117.txt";"11";"11";"4";"11";"4";
"71.txt";"9";"9";"0";"9";"2";
"50.txt";"9";"11";"1";"9";"0";
"28.txt";"10";"11";"0";"10";"1";
"97.txt";"29";"27";"0";"29";"5";
"44.txt";"12";"11";"2";"12";"3";
"208.txt";"4";"6";"0";"4";"0";
"192.txt";"5";"6";"0";"5";"0";
"138.txt";"3";"5";"0";"3";"0";
"135.txt";"8";"8";"3";"8";"3";
"103.txt";"9";"10";"1";"9";"2";
"203.txt";"5";"7";"0";"5";"0";
"143.txt";"2";"3";"0";"2";"1";
"38.txt";"16";"15";"0";"16";"1";
"78.txt";"13";"11";"2";"13";"7";
"161.txt";"14";"11";"2";"14";"5";
"37.txt";"15";"16";"4";"15";"5";
"88.txt";"20";"16";"1";"20";"4";
"98.txt";"34";"34";"7";"34";"4";
"122.txt";"10";"9";"0";"10";"0";
"35.txt";"13";"13";"0";"13";"0";
"202.txt";"3";"5";"0";"3";"0";
"29.txt";"11";"12";"0";"11";"1";
"186.txt";"14";"15";"2";"14";"2";
"32.txt";"14";"18";"1";"14";"2";
"160.txt";"15";"16";"0";"15";"3";
"144.txt";"5";"6";"0";"5";"1";
"167.txt";"4";"6";"0";"4";"0";
"189.txt";"3";"5";"0";"3";"1";
"166.txt";"2";"4";"0";"2";"0";
"70.txt";"13";"12";"2";"13";"2";
"24.txt";"10";"10";"2";"10";"3";
"51.txt";"19";"19";"2";"19";"2";
"14.txt";"17";"19";"3";"17";"5";
"164.txt";"4";"6";"1";"4";"0";
"140.txt";"4";"6";"0";"4";"1";
"30.txt";"11";"10";"4";"11";"4";
"148.txt";"10";"10";"3";"10";"4";
"4.txt";"37";"38";"3";"37";"8";
"72.txt";"12";"14";"1";"12";"2";
"118.txt";"16";"19";"5";"16";"6";
"204.txt";"2";"3";"0";"2";"0";
"34.txt";"17";"17";"0";"17";"1";
"195.txt";"21";"19";"1";"21";"3";
"182.txt";"4";"4";"2";"4";"2";
"149.txt";"6";"7";"1";"6";"1";
"54.txt";"13";"14";"0";"13";"1";
"158.txt";"5";"7";"0";"5";"1";
"86.txt";"10";"9";"0";"10";"1";
"124.txt";"11";"11";"0";"11";"2";
"132.txt";"11";"13";"1";"11";"1";
"142.txt";"2";"4";"0";"2";"0";
"1.txt";"35";"34";"11";"35";"13";
"150.txt";"3";"4";"0";"3";"0";
"168.txt";"7";"9";"1";"7";"3";
"85.txt";"7";"9";"0";"7";"1";
"31.txt";"11";"12";"3";"11";"2";
"75.txt";"8";"11";"1";"8";"2";
"13.txt";"17";"17";"0";"17";"2";
"16.txt";"14";"13";"4";"14";"3";
"211.txt";"5";"8";"0";"5";"0";
"21.txt";"19";"21";"0";"19";"1";
"99.txt";"10";"12";"2";"10";"5";
"67.txt";"11";"13";"0";"11";"0";
"120.txt";"13";"13";"2";"13";"2";
"61.txt";"13";"14";"0";"13";"1";
"212.txt";"4";"6";"0";"4";"0";
"139.txt";"4";"5";"0";"4";"0";
"18.txt";"14";"14";"0";"14";"1";
"141.txt";"5";"6";"0";"5";"1";
"94.txt";"25";"25";"2";"25";"2";
"92.txt";"34";"32";"12";"34";"10";
"147.txt";"8";"9";"0";"8";"1";
"56.txt";"14";"15";"0";"14";"3";
"104.txt";"2";"4";"0";"2";"0";
"62.txt";"15";"16";"1";"15";"1";
"179.txt";"3";"4";"0";"3";"0";
"185.txt";"4";"6";"1";"4";"1";
"76.txt";"8";"7";"0";"8";"2";
"207.txt";"5";"3";"1";"5";"2";
"127.txt";"16";"16";"1";"16";"1";
"74.txt";"15";"15";"2";"15";"1";
"213.txt";"7";"8";"2";"7";"2";
"136.txt";"11";"13";"2";"11";"2";
"116.txt";"15";"14";"2";"15";"2";
"155.txt";"4";"6";"1";"4";"0";
"81.txt";"13";"12";"2";"13";"3";
"36.txt";"16";"17";"1";"16";"0";
"52.txt";"14";"11";"3";"14";"3";
"106.txt";"5";"7";"0";"5";"0";
"46.txt";"11";"13";"4";"11";"2";
"137.txt";"13";"12";"1";"13";"3";
"40.txt";"10";"9";"0";"10";"0";
"112.txt";"12";"15";"0";"12";"1";
"39.txt";"20";"18";"3";"20";"3";
"170.txt";"5";"8";"0";"5";"0";
"3.txt";"32";"31";"4";"32";"5";
"156.txt";"5";"8";"2";"5";"1";
"188.txt";"14";"14";"3";"14";"5";
"123.txt";"16";"17";"0";"16";"5"; 
"79.txt";"1";"3";"0";"1";"0";
"191.txt";"7";"9";"0";"7";"1";
"27.txt";"13";"14";"2";"13";"2";
"8.txt";"46";"36";"7";"46";"18";
"83.txt";"10";"12";"2";"10";"2";
"25.txt";"9";"10";"0";"9";"1";
"66.txt";"13";"13";"3";"13";"5";
"7.txt";"53";"46";"14";"53";"23";
"162.txt";"14";"15";"4";"14";"5"; 