"FILE";"KEY_COUNT";"SOBEK_COUNT";"SOBEK_ACERTO";"YAKE_COUNT";"YAKE_ACERTO"
"alt_livelihood.txt";"29";"26";"2";"29";"2";
"x6998e00.txt";"26";"25";"3";"26";"5";
"a0469e00.txt";"27";"31";"3";"27";"3";
"a0011e00.txt";"33";"33";"8";"33";"7";
"birdpre.txt";"23";"23";"3";"23";"4";
"ae228e00.txt";"33";"32";"2";"33";"2";
"y6396e00.txt";"24";"21";"0";"24";"3";
"a0549e00.txt";"35";"36";"8";"35";"3"; 
"a0184e00.txt";"29";"29";"4";"29";"3";
"j6561e00.txt";"28";"26";"5";"28";"3";
"ag091e00.txt";"26";"27";"4";"26";"2";
"cleveland02_ecosystems.txt";"31";"29";"2";"31";"2";
"ecology_letters_2004.txt";"30";"32";"3";"30";"1";
"ag101e00.txt";"33";"33";"5";"33";"3";
"a0276e00.txt";"43";"38";"8";"43";"4";
"y5647e00.txt";"26";"28";"2";"26";"2";
"a0587e00.txt";"30";"29";"8";"30";"4";
"ae403e00.txt";"26";"21";"2";"26";"3";
"ag868e00.txt";"23";"26";"7";"23";"5";
"ae080e00.txt";"26";"19";"2";"26";"2";
"ag387e00.txt";"27";"23";"3";"27";"3";
"at2050web.txt";"38";"47";"8";"38";"6";
"a0126e00.txt";"43";"37";"1";"43";"4";
"ag093e00.txt";"45";"35";"9";"45";"8";
"ag102e00.txt";"36";"35";"8";"36";"9";
"a0541e00.txt";"35";"39";"2";"35";"3";
"hoagland_mre_2003.txt";"24";"20";"2";"24";"2";
"y5843e00.txt";"41";"38";"7";"41";"7";
"j1255e00.txt";"37";"41";"4";"37";"5";
"ae937e00.txt";"60";"56";"7";"60";"6"; 